<svg id="Group_1583" data-name="Group 1583" xmlns="http://www.w3.org/2000/svg" xmlns:xlink="http://www.w3.org/1999/xlink" width="20.3" height="23.479" viewBox="0 0 20.3 23.479">
  <defs>
    <clipPath id="clip-path">
      <rect id="Rectangle_805" data-name="Rectangle 805" width="20.3" height="23.479" fill="#fff"/>
    </clipPath>
  </defs>
  <g id="Group_1503" data-name="Group 1503" clip-path="url(#clip-path)">
    <path id="Path_3652" data-name="Path 3652" d="M17.74,3.79c.276.11.307.166.324.446,0,5.191.016,10.382,0,15.573A3.774,3.774,0,0,1,14.4,23.473q-4.312.014-8.625,0a3.79,3.79,0,0,1-3.664-3.664V4.236s.217-.715.721-.4a.5.5,0,0,1,.218.4c0,5.2-.049,10.39,0,15.585a2.815,2.815,0,0,0,2.713,2.713q4.324.041,8.649,0a2.818,2.818,0,0,0,2.714-2.749V4.236a.486.486,0,0,1,.614-.446m-7.6,1.036a.5.5,0,0,1,.417.466V20.306c-.024.434-.215.444-.417.466a.493.493,0,0,1-.522-.466V5.292a.487.487,0,0,1,.522-.466m3.754,0a.5.5,0,0,1,.417.466V20.306a.485.485,0,0,1-.8.332.408.408,0,0,1-.137-.332V5.292a.487.487,0,0,1,.522-.466m-7.507,0a.5.5,0,0,1,.417.466V20.306a.489.489,0,0,1-.8.332.407.407,0,0,1-.137-.332V5.292a.487.487,0,0,1,.522-.466M19.823,3.063H.469l-.059,0c-.4-.076-.4-.237-.409-.436a.494.494,0,0,1,.468-.5h5.4V.813a.849.849,0,0,1,.8-.8c2.276-.029,4.551,0,6.827,0a.847.847,0,0,1,.818.818V2.124h5.513s.76.287.362.768a.5.5,0,0,1-.362.17M6.8,2.124h6.569V.952H6.8Z" transform="translate(0 -0.001)" fill="#fff" fill-rule="evenodd"/>
  </g>
</svg>
