<svg xmlns="http://www.w3.org/2000/svg" xmlns:xlink="http://www.w3.org/1999/xlink" width="21" height="23" viewBox="0 0 21 23">
  <defs>
    <clipPath id="clip-path">
      <rect id="Rectangle_819" data-name="Rectangle 819" width="21" height="23" transform="translate(-0.052 0.048)" fill="#fff"/>
    </clipPath>
  </defs>
  <g id="Group_1552" data-name="Group 1552" transform="translate(0.052 -0.048)">
    <g id="Group_1520" data-name="Group 1520" clip-path="url(#clip-path)">
      <path id="Path_3656" data-name="Path 3656" d="M4.949,17.6H.55a.55.55,0,0,1-.55-.55v-4.4a.554.554,0,0,1,.161-.389l12.1-12.1a.552.552,0,0,1,.779,0l4.4,4.4a.552.552,0,0,1,0,.779l-12.1,12.1a.554.554,0,0,1-.389.161M1.1,16.5H4.722L16.27,4.949,12.648,1.328,1.1,12.876Z" transform="translate(0 0)" fill="#fff"/>
      <path id="Path_3657" data-name="Path 3657" d="M20.347,21.1H.55a.55.55,0,1,1,0-1.1h19.8a.55.55,0,1,1,0,1.1" transform="translate(0 1.997)" fill="#fff"/>
    </g>
  </g>
</svg>
