<svg xmlns="http://www.w3.org/2000/svg" xmlns:xlink="http://www.w3.org/1999/xlink" width="26.007" height="30.609" viewBox="0 0 26.007 30.609">
  <defs>
    <style>
      .cls-1 {
        fill: #6f6f6f;
      }

      .cls-2 {
        clip-path: url(#clip-path);
      }

      .cls-3 {
        fill: #1d6cff;
      }

      .cls-4 {
        fill: #2a4369;
      }
    </style>
    <clipPath id="clip-path">
      <rect id="Rectangle_583" data-name="Rectangle 583" class="cls-1" width="26.007" height="30.609" transform="translate(0 0)"/>
    </clipPath>
  </defs>
  <g id="Group_1145" data-name="Group 1145" transform="translate(0 0.004)">
    <g id="Group_1144" data-name="Group 1144" class="cls-2" transform="translate(0 -0.004)">
      <path id="Path_3377" data-name="Path 3377" class="cls-3" d="M890.265,719.9a3.2,3.2,0,0,0-.783-.466c-.593-.28-.921-.464-.922-1.03l.01-.158a.441.441,0,0,0-.4-.468H888.1a.441.441,0,0,0-.416.4c-.005.062-.008.122-.009.181l-.227,3.519a2.792,2.792,0,0,0-1.2-.257,2.7,2.7,0,0,0-1.335.327,1.114,1.114,0,0,0,0,2.054,2.89,2.89,0,0,0,2.669,0,1.225,1.225,0,0,0,.681-1.007l.2-3.11a4.653,4.653,0,0,0,.64.346c.562.265.725.385.725.672a.442.442,0,0,0,.883,0,1.3,1.3,0,0,0-.448-1m-4.016,3.548c-.7,0-1.133-.3-1.133-.47s.43-.47,1.133-.47,1.133.3,1.133.47-.43.47-1.133.47" transform="translate(-864.706 -701.921)"/>
      <path id="Path_3378" data-name="Path 3378" class="cls-4" d="M17.619,21.708c-.695-1.071-1.406-2.083-2-2.85-.3-.383-.552-.684-.755-.895-.28-.291-.506-.465-.77-.436a.5.5,0,0,0-.44.561c.137,2.666-.849,4.736-2.637,5.536a2.536,2.536,0,0,1-2.8-.263c-.662-.656-.7-1.759-.114-3.107.19-.435.635-1.455,1.161-2.808q.114-.294.225-.585h1.469V17.3a.442.442,0,1,0,.883,0V15.536a.442.442,0,1,0-.883,0v.442H9.818q.058-.16.114-.318c.254-.713.489-1.413.7-2.08q.091-.288.176-.574h1.168v.442a.442.442,0,1,0,.883,0V11.681a.442.442,0,0,0-.883,0v.442h-.912q.046-.164.09-.327c.2-.738.371-1.453.508-2.125q.055-.268.1-.53h.928v.442a.442.442,0,1,0,.883,0V7.816a.442.442,0,0,0-.883,0v.442h-.779q.029-.194.054-.384a13.583,13.583,0,0,0,.057-3.625,5.108,5.108,0,0,0-1.2-2.811A4.68,4.68,0,0,0,8.544.249,10.07,10.07,0,0,0,4.9.088l-.336.03a.44.44,0,0,0-.193.064C2.994.346.884.867.229,1.726a1,1,0,0,0-.215.787.442.442,0,0,0,.435.368H.9c.914,0,2.965,0,3.895-.038H4.95c2.3,0,2.934.647,3.353,1.254.446.647.468,1.9.065,3.62-.123.527-.289,1.109-.493,1.73-.21.641-.465,1.338-.759,2.072-.114.284-.234.577-.36.875v0q-.182.431-.38.875c-.3.667-.623,1.372-.973,2.1-.112.231-.225.463-.342.7a.441.441,0,0,0-.18.355s0,0,0,.006c-.116.231-.234.466-.358.708-.666,1.3-1.262,2.406-1.7,3.21-.242.447-.417.77-.519.971a10.047,10.047,0,0,0-1.2,4.182,4.947,4.947,0,0,0,.932,3.186,4.828,4.828,0,0,0,2.712,1.7,7.5,7.5,0,0,0,1.843.217,10.82,10.82,0,0,0,2.131-.226,26.718,26.718,0,0,0,3.465-.823,11.66,11.66,0,0,1,7.638-.241.441.441,0,0,0,.226.008.855.855,0,0,0,.639-.589,1.745,1.745,0,0,0,.025-.835,18.211,18.211,0,0,0-2.309-4.931c-.179-.3-.536-.868-.789-1.258M4.162,1.1v.875C3.282,1.992,2.043,2,1.243,2a8.791,8.791,0,0,1,2.918-.9m.883.857v-1C7.6.645,9.493,1.3,10.18,2.038c.966,1.043,1.273,2.968.911,5.721-.021.163-.046.33-.072.5H9.144q.044-.174.084-.341c.475-2.027.41-3.44-.2-4.322-.579-.839-1.463-1.617-3.985-1.636m2.891,9.886c.3-.751.563-1.466.778-2.125q.1-.3.183-.579h1.968q-.034.175-.07.353c-.134.654-.3,1.351-.5,2.072q-.074.275-.155.557H7.823q.057-.14.112-.278m-.753,1.782q.139-.313.271-.621h2.43q-.047.155-.1.31c-.206.656-.437,1.345-.687,2.048q-.108.3-.223.614H6.086l.111-.228c.354-.733.686-1.447.986-2.122M19.864,28.4a11.624,11.624,0,0,0-4.294-.479,18.326,18.326,0,0,0-3.625.781,25.953,25.953,0,0,1-3.365.8l-.02,0c-2.633.532-4.753.036-5.818-1.363-1.109-1.456-.981-3.8.352-6.434.1-.191.278-.526.507-.95.413-.763,1.037-1.915,1.707-3.229.117-.23.231-.454.341-.674h2.9l-.1.265c-.52,1.336-.96,2.344-1.148,2.775a4.9,4.9,0,0,0-.47,2.385,2.706,2.706,0,0,0,.772,1.7,2.864,2.864,0,0,0,1.736.789,3.978,3.978,0,0,0,2.043-.347,5.01,5.01,0,0,0,2.324-2.2,7.267,7.267,0,0,0,.844-3.3c.145.172.324.4.545.687.565.743,1.223,1.689,1.852,2.665a22.983,22.983,0,0,1,2.866,5.563,1.555,1.555,0,0,1,.059.556" transform="translate(-0.001 0.005)"/>
    </g>
  </g>
</svg>
