<svg xmlns="http://www.w3.org/2000/svg" xmlns:xlink="http://www.w3.org/1999/xlink" width="32" height="39" viewBox="0 0 32 39">
  <defs>
    <style>
      .cls-1 {
        fill: #ff96b5;
      }

      .cls-2 {
        clip-path: url(#clip-path);
      }

      .cls-3 {
        fill: #1d73ff;
      }

      .cls-4 {
        fill: #fd3c3c;
      }
    </style>
    <clipPath id="clip-path">
      <rect id="Rectangle_584" data-name="Rectangle 584" class="cls-1" width="32" height="39" transform="translate(0 -0.25)"/>
    </clipPath>
  </defs>
  <g id="Group_1152" data-name="Group 1152" transform="translate(-1654 -98)">
    <g id="Group_1147" data-name="Group 1147" transform="translate(1654 98.468)">
      <g id="Group_1146" data-name="Group 1146" class="cls-2" transform="translate(0 -0.218)">
        <path id="Path_3379" data-name="Path 3379" class="cls-3" d="M29.26,32.264H1.269A1.272,1.272,0,0,1,.136,30.419a23.087,23.087,0,0,0,2.4-10.179V15.723a12.723,12.723,0,0,1,25.447,0v4.491a23.083,23.083,0,0,0,2.4,10.179,1.273,1.273,0,0,1-.524,1.721,1.287,1.287,0,0,1-.608.149M3.241,29.719H27.288a25.6,25.6,0,0,1-1.845-9.5V15.723a10.179,10.179,0,1,0-20.357,0v4.491a25.6,25.6,0,0,1-1.845,9.5" transform="translate(0 1.397)"/>
        <path id="Path_3380" data-name="Path 3380" class="cls-3" d="M13.359,31.634A6.362,6.362,0,0,1,7,25.272a1.272,1.272,0,1,1,2.545,0,3.813,3.813,0,0,0,1.12,2.7,3.918,3.918,0,0,0,5.395,0,1.278,1.278,0,0,1,1.807,1.807,6.358,6.358,0,0,1-4.5,1.858" transform="translate(1.905 7.116)"/>
        <path id="Path_3381" data-name="Path 3381" class="cls-3" d="M12.269,6.362A1.273,1.273,0,0,1,11,5.089V1.272a1.272,1.272,0,0,1,2.545,0V5.089a1.273,1.273,0,0,1-1.272,1.272" transform="translate(2.995 0.58)"/>
        <path id="Path_3382" data-name="Path 3382" class="cls-4" d="M22.542,5.089a2.545,2.545,0,1,1,2.545-2.545,2.546,2.546,0,0,1-2.545,2.545" transform="translate(5.446 0.58)"/>
      </g>
    </g>
  </g>
</svg>
