<svg id="Group_1614" data-name="Group 1614" xmlns="http://www.w3.org/2000/svg" xmlns:xlink="http://www.w3.org/1999/xlink" width="44" height="60" viewBox="0 0 44 60">
  <defs>
    <clipPath id="clip-path">
      <rect id="Rectangle_879" data-name="Rectangle 879" width="44" height="60" fill="#fff"/>
    </clipPath>
  </defs>
  <g id="Group_1613" data-name="Group 1613" clip-path="url(#clip-path)">
    <path id="Path_3676" data-name="Path 3676" d="M34.731,20.769h-.115V12.692a12.692,12.692,0,1,0-25.385,0v8.077A9.231,9.231,0,0,0,0,30V51a9.229,9.229,0,0,0,9.231,9H34.846a9.231,9.231,0,0,0,9-9.115V30a9.233,9.233,0,0,0-9.115-9.231M13.846,12.692a8.077,8.077,0,0,1,16.154,0v8.077H13.846ZM39.231,50.885a4.614,4.614,0,0,1-4.5,4.5H9.231a4.616,4.616,0,0,1-4.615-4.5V30a4.617,4.617,0,0,1,4.615-4.615H34.846A4.615,4.615,0,0,1,39.231,30Z" fill="#fff"/>
    <path id="Path_3677" data-name="Path 3677" d="M14.077,14a8.077,8.077,0,1,0,8.077,8.077A8.077,8.077,0,0,0,14.077,14m0,11.538a3.462,3.462,0,1,1,3.462-3.462,3.461,3.461,0,0,1-3.462,3.462" transform="translate(7.846 18.308)" fill="#fff"/>
  </g>
</svg>
