<svg xmlns="http://www.w3.org/2000/svg" width="19.371" height="12.359" viewBox="0 0 19.371 12.359">
  <path id="Path_3647" data-name="Path 3647" d="M4128.225,3073.2l3.945,5.086,11.226-8.192" transform="translate(-4126.12 -3068.001)" fill="none" stroke="#25c94b" stroke-linecap="round" stroke-width="3"/>
</svg>
