<svg xmlns="http://www.w3.org/2000/svg" width="218.814" height="135.919" viewBox="0 0 218.814 135.919">
  <path id="Path_3641" data-name="Path 3641" d="M1562,3735s2.945-30.2,23.375-32.023,32.57,9.523,44.18,0,8.242-24.031,26.406-25.367,29.875,31.789,47.742,25.367,2.875-27.836,15.508-41.062,18.3,4.914,32.023-12.57,3.3-45.633,25.555-45.875" transform="translate(-1558.019 -3599.469)" fill="none" stroke="#fff" stroke-width="8"/>
</svg>
