<svg xmlns="http://www.w3.org/2000/svg" width="4" height="20" viewBox="0 0 4 20">
  <g id="Group_1502" data-name="Group 1502" transform="translate(-1780 -796)">
    <circle id="Ellipse_150" data-name="Ellipse 150" cx="2" cy="2" r="2" transform="translate(1780 796)" fill="#facf04"/>
    <circle id="Ellipse_151" data-name="Ellipse 151" cx="2" cy="2" r="2" transform="translate(1780 804)" fill="#facf04"/>
    <circle id="Ellipse_152" data-name="Ellipse 152" cx="2" cy="2" r="2" transform="translate(1780 812)" fill="#facf04"/>
  </g>
</svg>
